{"filesize":"","keyword":"","list":[{"ID":"a63779e12b6842b0ae59e8b0a8412a42","EPS_NAME":"贵州合友实业有限公司","PRODUCT_SN":"贵妆20180001","CITY_CODE":"254","XK_COMPLETE_DATE":{"date":31,"day":4,"hours":0,"minutes":0,"month":9,"nanos":0,"seconds":0,"time":1572451200000,"timezoneOffset":-480,"year":119},"XK_DATE":"2023-03-26","QF_MANAGER_NAME":"贵州省药品监督管理局","BUSINESS_LICENSE_NUMBER":"91522726MA6DMKM20Y","XC_DATE":"2019-10-31","NUM_":1},{"ID":"3ee8b62003c94ec1828b80836034c5f2","EPS_NAME":"广州市金宸生物科技有限公司","PRODUCT_SN":"粤妆20190241","CITY_CODE":null,"XK_COMPLETE_DATE":{"date":30,"day":3,"hours":0,"minutes":0,"month":9,"nanos":0,"seconds":0,"time":1572364800000,"timezoneOffset":-480,"year":119},"XK_DATE":"2024-10-29","QF_MANAGER_NAME":"广东省药品监督管理局","BUSINESS_LICENSE_NUMBER":"91440101MA5AKFT0XB","XC_DATE":"2019-10-30","NUM_":2},{"ID":"a4f7e3145eeb4828a46c66aeee61b21f","EPS_NAME":"成都青山利康药业有限公司","PRODUCT_SN":"川妆20160004","CITY_CODE":"165","XK_COMPLETE_DATE":{"date":30,"day":3,"hours":0,"minutes":0,"month":9,"nanos":0,"seconds":0,"time":1572364800000,"timezoneOffset":-480,"year":119},"XK_DATE":"2021-06-27","QF_MANAGER_NAME":"四川省药品监督管理局","BUSINESS_LICENSE_NUMBER":"91510100732384126D","XC_DATE":"2019-10-30","NUM_":3},{"ID":"2b729d25154c4f79b5d935de36d0ab4b","EPS_NAME":"广州科元化妆品有限公司","PRODUCT_SN":"粤妆20190243","CITY_CODE":null,"XK_COMPLETE_DATE":{"date":29,"day":2,"hours":0,"minutes":0,"month":9,"nanos":0,"seconds":0,"time":1572278400000,"timezoneOffset":-480,"year":119},"XK_DATE":"2024-10-28","QF_MANAGER_NAME":"广东省药品监督管理局","BUSINESS_LICENSE_NUMBER":"91440111725610201A","XC_DATE":"2019-10-29","NUM_":4},{"ID":"b055aba4a41b47e8a1ff19926255c870","EPS_NAME":"瑞孚生物技术（广州）有限公司","PRODUCT_SN":"粤妆20190240","CITY_CODE":null,"XK_COMPLETE_DATE":{"date":29,"day":2,"hours":0,"minutes":0,"month":9,"nanos":0,"seconds":0,"time":1572278400000,"timezoneOffset":-480,"year":119},"XK_DATE":"2024-10-28","QF_MANAGER_NAME":"广东省药品监督管理局","BUSINESS_LICENSE_NUMBER":"91440101MA5CP7FWX4","XC_DATE":"2019-10-29","NUM_":5},{"ID":"a8ab085cb1d74842a6a2f1c4db908cdb","EPS_NAME":"广州市绮易美化妆品有限公司","PRODUCT_SN":"粤妆20160695","CITY_CODE":null,"XK_COMPLETE_DATE":{"date":29,"day":2,"hours":0,"minutes":0,"month":9,"nanos":0,"seconds":0,"time":1572278400000,"timezoneOffset":-480,"year":119},"XK_DATE":"2021-08-30","QF_MANAGER_NAME":"广东省药品监督管理局","BUSINESS_LICENSE_NUMBER":"91440111716398608T","XC_DATE":"2019-10-29","NUM_":6},{"ID":"270b93b832a54210aa97d2444433bd72","EPS_NAME":"湖南欧标化妆品有限公司","PRODUCT_SN":"湘妆20190006","CITY_CODE":"190","XK_COMPLETE_DATE":{"date":29,"day":2,"hours":0,"minutes":0,"month":9,"nanos":0,"seconds":0,"time":1572278400000,"timezoneOffset":-480,"year":119},"XK_DATE":"2024-08-01","QF_MANAGER_NAME":"湖南省药品监督管理局","BUSINESS_LICENSE_NUMBER":"91430100MA4PW11K4W","XC_DATE":"2019-10-29","NUM_":7},{"ID":"7b411d3167e64ca7857a53a4a89834fb","EPS_NAME":"西藏玫瑰生物科技发展有限公司","PRODUCT_SN":"藏妆20190001","CITY_CODE":"313","XK_COMPLETE_DATE":{"date":28,"day":1,"hours":0,"minutes":0,"month":9,"nanos":0,"seconds":0,"time":1572192000000,"timezoneOffset":-480,"year":119},"XK_DATE":"2024-10-28","QF_MANAGER_NAME":"西藏自治区药品监督管理局","BUSINESS_LICENSE_NUMBER":"91540000MA6T11MN0X","XC_DATE":"2019-10-28","NUM_":8},{"ID":"acdc62b4159b4ebc847d2e82838e6cec","EPS_NAME":"赛曼娜（广东）智能生物科技有限公司","PRODUCT_SN":"粤妆20190238","CITY_CODE":null,"XK_COMPLETE_DATE":{"date":25,"day":5,"hours":0,"minutes":0,"month":9,"nanos":0,"seconds":0,"time":1571932800000,"timezoneOffset":-480,"year":119},"XK_DATE":"2024-10-24","QF_MANAGER_NAME":"广东省药品监督管理局","BUSINESS_LICENSE_NUMBER":"91440101MA5CPW8H0Y","XC_DATE":"2019-10-25","NUM_":9},{"ID":"08c2e19aae3742cfba76665c9de47338","EPS_NAME":"完美日记化妆品（广州）有限公司","PRODUCT_SN":"粤妆20190237","CITY_CODE":null,"XK_COMPLETE_DATE":{"date":25,"day":5,"hours":0,"minutes":0,"month":9,"nanos":0,"seconds":0,"time":1571932800000,"timezoneOffset":-480,"year":119},"XK_DATE":"2024-10-24","QF_MANAGER_NAME":"广东省药品监督管理局","BUSINESS_LICENSE_NUMBER":"91440101MA5CC4NE45","XC_DATE":"2019-10-25","NUM_":10},{"ID":"a4e7a5cd649d4b8f8eea9e206f04e837","EPS_NAME":"广州雨桐生物科技有限公司","PRODUCT_SN":"粤妆20190236","CITY_CODE":null,"XK_COMPLETE_DATE":{"date":25,"day":5,"hours":0,"minutes":0,"month":9,"nanos":0,"seconds":0,"time":1571932800000,"timezoneOffset":-480,"year":119},"XK_DATE":"2024-10-24","QF_MANAGER_NAME":"广东省药品监督管理局","BUSINESS_LICENSE_NUMBER":"91440101MA5CP0FP3U","XC_DATE":"2019-10-25","NUM_":11},{"ID":"10354266efc34a81bca4e8ea5f129124","EPS_NAME":"港雅（广东）生物科技有限公司","PRODUCT_SN":"粤妆20190235","CITY_CODE":null,"XK_COMPLETE_DATE":{"date":25,"day":5,"hours":0,"minutes":0,"month":9,"nanos":0,"seconds":0,"time":1571932800000,"timezoneOffset":-480,"year":119},"XK_DATE":"2024-10-24","QF_MANAGER_NAME":"广东省药品监督管理局","BUSINESS_LICENSE_NUMBER":"91440101336386832P","XC_DATE":"2019-10-25","NUM_":12},{"ID":"a1176dff622c41bdac4c58b272f759db","EPS_NAME":"濡美（广州）生物工程有限公司","PRODUCT_SN":"粤妆20190141","CITY_CODE":null,"XK_COMPLETE_DATE":{"date":25,"day":5,"hours":0,"minutes":0,"month":9,"nanos":0,"seconds":0,"time":1571932800000,"timezoneOffset":-480,"year":119},"XK_DATE":"2024-07-30","QF_MANAGER_NAME":"广东省药品监督管理局","BUSINESS_LICENSE_NUMBER":"91440101MA5CK4103J","XC_DATE":"2019-10-25","NUM_":13},{"ID":"5d6e76dea29a42088f589058b3be0665","EPS_NAME":"广州市莉丹露化妆品有限公司","PRODUCT_SN":"粤妆20170399","CITY_CODE":null,"XK_COMPLETE_DATE":{"date":25,"day":5,"hours":0,"minutes":0,"month":9,"nanos":0,"seconds":0,"time":1571932800000,"timezoneOffset":-480,"year":119},"XK_DATE":"2024-10-24","QF_MANAGER_NAME":"广东省药品监督管理局","BUSINESS_LICENSE_NUMBER":"914401017934823605","XC_DATE":"2019-10-25","NUM_":14},{"ID":"e737c14757b04ed0993362a885058756","EPS_NAME":"江门市爱果工房生物科技有限公司","PRODUCT_SN":"粤妆20170377","CITY_CODE":null,"XK_COMPLETE_DATE":{"date":25,"day":5,"hours":0,"minutes":0,"month":9,"nanos":0,"seconds":0,"time":1571932800000,"timezoneOffset":-480,"year":119},"XK_DATE":"2022-04-20","QF_MANAGER_NAME":"广东省药品监督管理局","BUSINESS_LICENSE_NUMBER":"91440705325074489E","XC_DATE":"2019-10-25","NUM_":15}],"orderBy":"createDate","orderType":"desc","pageCount":340,"pageNumber":1,"pageSize":15,"property":"","totalCount":5099}